Lab 2 - Data 202
…
Utilized the droplevels() function to remove filtered content from
view

gsd = gss_cat%>%
  na.omit() %>%
  select(year, race, rincome , relig, age) %>%
  filter(relig %in% c("Christian"))  %>% # filter relig column to only include self-reported Christian participants
  filter(race %in% c("White", "Black")) %>% # filter race column to only include self-reported Black or White participants
  filter(!rincome %in% c("No answer", "Refused", "Not applicable", "Don't know")) # filter rincome column to only include actual income ranges only. Removed "Other" type answers for sake of study

gsd = droplevels(gsd) #removed multiple variable columns, and NA values
gsd

## # A tibble: 223 × 5
##     year race  rincome        relig       age
##    <int> <fct> <fct>          <fct>     <int>
##  1  2000 White $25000 or more Christian    36
##  2  2000 White $25000 or more Christian    54
##  3  2000 White $20000 - 24999 Christian    31
##  4  2000 White $25000 or more Christian    42
##  5  2000 White $25000 or more Christian    36
##  6  2000 Black $25000 or more Christian    36
##  7  2000 Black $10000 - 14999 Christian    31
##  8  2000 White $25000 or more Christian    48
##  9  2000 White $15000 - 19999 Christian    27
## 10  2000 White $25000 or more Christian    45
## # ℹ 213 more rows
…
