Lab 1 - Bivariate Analysis
…
bmi <- critstats::blackmedianincome # assign dataset to main dataframe
# View(bmi)

Part 2 - Dataset Cleaning/Modification and Analyis

bmiC = critstats::blackmedianincome %>%
  na.omit() %>%
  select(NAME, estimate , moe, GEOID) %>%
  rename(income = estimate)%>%
  rename(state = NAME) %>%
  rename(geoid = GEOID)

bmiC # removed variable column, NA values, and rename 3 columns (estimate, NAME, and GEOID)

## # A tibble: 52 × 4
##    state                income   moe geoid
##    <chr>                 <dbl> <dbl> <chr>
##  1 Alabama               35239   496 01   
##  2 Alaska                64054  4716 02   
##  3 Arizona               49418  1488 04   
##  4 Arkansas              32844   723 05   
##  5 California            54976   602 06   
##  6 Colorado              53806  1742 08   
##  7 Connecticut           50905  1208 09   
##  8 Delaware              50870  2077 10   
##  9 District of Columbia  48515  1216 11   
## 10 Florida               43418   442 12   
## # ℹ 42 more rows
…
